IconRect : 0 0 44 44
Animajca : 
STOP : 8 0 32 32
STOP : 43 0 32 32
STOP : 82 0 32 32
STOP : 119 0 32 32
STOP : 157 0 32 32
N : 12 44 32 32
N : 15 80 32 32
N : 14 120 32 32
N : 15 156 32 32
NE : 48 38 32 32
NE : 50 81 32 32
NE : 50 118 32 32
NE : 50 154 32 32
E : 85 40 32 32
E : 85 82 32 32
E : 85 118 32 32
E : 84 155 32 32
SE : 123 40 32 32
SE : 121 76 32 32
SE : 123 117 32 32
SE : 120 154 32 32
S : 8 0 32 32
S : 161 81 32 32
S : 160 117 32 32
S : 160 156 32 32
WS : 297 38 32 32
WS : 297 79 32 32
WS : 297 117 32 32
WS : 297 154 32 32
W : 330 40 32 32
W : 330 81 32 32
W : 330 116 32 32
W : 330 155 32 32
NW : 366 40 32 32
NW : 366 80 32 32
NW : 366 118 32 32
NW : 366 154 32 32
MoveFrameSpeed : 0.135
Walka : 
STOP : 0 0 0 0
STOP : 0 0 0 0
STOP : 0 0 0 0
STOP : 0 0 0 0
N : 0 0 0 0
N : 0 0 0 0
N : 0 0 0 0
N : 0 0 0 0
NE : 0 0 0 0
NE : 0 0 0 0
NE : 0 0 0 0
NE : 0 0 0 0
E : 94 190 32 32
E : 85 189 32 32
E : 88 266 32 32
E : 93 358 34 32
SE : 0 0 0 0
SE : 0 0 0 0
SE : 0 0 0 0
SE : 0 0 0 0
S : 0 0 0 0
S : 0 0 0 0
S : 0 0 0 0
S : 0 0 0 0
WS : 0 0 0 0
WS : 0 0 0 0
WS : 0 0 0 0
WS : 0 0 0 0
W : 0 0 0 0
W : 0 0 0 0
W : 0 0 0 0
W : 0 0 0 0
NW : 0 0 0 0
NW : 0 0 0 0
NW : 0 0 0 0
NW : 0 0 0 0
Smierc : 
STOP : 0 0 0 0
STOP : 0 0 0 0
STOP : 0 0 0 0
STOP : 0 0 0 0
N : 0 0 0 0
N : 0 0 0 0
N : 0 0 0 0
N : 0 0 0 0
NE : 0 0 0 0
NE : 0 0 0 0
NE : 0 0 0 0
NE : 0 0 0 0
E : 0 0 0 0
E : 0 0 0 0
E : 0 0 0 0
E : 0 0 0 0
SE : 0 0 0 0
SE : 0 0 0 0
SE : 0 0 0 0
SE : 0 0 0 0
S : 0 0 0 0
S : 0 0 0 0
S : 0 0 0 0
S : 0 0 0 0
WS : 0 0 0 0
WS : 0 0 0 0
WS : 0 0 0 0
WS : 0 0 0 0
W : 0 0 0 0
W : 0 0 0 0
W : 0 0 0 0
W : 0 0 0 0
NW : 0 0 0 0
NW : 0 0 0 0
NW : 0 0 0 0
NW : 0 0 0 0
TexturePath : Texture/Peasant
TexturePath : Texture/Peasant